(export (version D)
  (design
    (source /home/martin/Downloads/HeadSetInterconnection/HeadsetInterconnection.sch)
    (date "Fr 19 Nov 2021 14:46:01 CET")
    (tool "Eeschema 5.1.7-a382d34a8~88~ubuntu20.04.1")
    (sheet (number 1) (name /) (tstamps /)
      (title_block
        (title)
        (company)
        (rev)
        (date)
        (source HeadsetInterconnection.sch)
        (comment (number 1) (value ""))
        (comment (number 2) (value ""))
        (comment (number 3) (value ""))
        (comment (number 4) (value "")))))
  (components
    (comp (ref J7)
      (value AudioJack4_SwitchT)
      (footprint Footprints:Jack_2.5mm_4Pol_horizontal)
      (datasheet ~)
      (fields
        (field (name SupplierName) Conrad)
        (field (name SupplierNumber) "1578843 - AW")
        (field (name SupplierUrl) https://www.conrad.de/de/p/tru-components-1578843-klinken-steckverbinder-2-5-mm-buchse-einbau-horizontal-polzahl-4-1-st-1578843.html))
      (libsource (lib HeadsetInterconnection-rescue) (part AudioJack4_SwitchT-Connector) (description ""))
      (sheetpath (names /) (tstamps /))
      (tstamp 60D5C983))
    (comp (ref J6)
      (value AudioJack4_SwitchT)
      (footprint Footprints:Jack_2.5mm_4Pol_horizontal)
      (datasheet ~)
      (fields
        (field (name SupplierName) Conrad)
        (field (name SupplierNumber) "1578843 - AW")
        (field (name SupplierUrl) https://www.conrad.de/de/p/tru-components-1578843-klinken-steckverbinder-2-5-mm-buchse-einbau-horizontal-polzahl-4-1-st-1578843.html))
      (libsource (lib HeadsetInterconnection-rescue) (part AudioJack4_SwitchT-Connector) (description ""))
      (sheetpath (names /) (tstamps /))
      (tstamp 60D5E557))
    (comp (ref J5)
      (value AudioJack4)
      (footprint Footprints:Jack_3.5mm_4Pol_horizontal)
      (datasheet ~)
      (fields
        (field (name SupplierName) Conrad)
        (field (name SupplierNumber) "718732 - AW")
        (field (name SupplierUrl) https://www.conrad.de/de/p/conrad-components-718732-klinken-steckverbinder-3-5-mm-buchse-einbau-horizontal-polzahl-4-stereo-schwarz-1-st-718732.html))
      (libsource (lib Connector) (part AudioJack4) (description "Audio Jack, 4 Poles (TRRS)"))
      (sheetpath (names /) (tstamps /))
      (tstamp 60D6117C))
    (comp (ref J1)
      (value AudioJack4)
      (footprint Footprints:Jack_3.5mm_4Pol_horizontal)
      (datasheet ~)
      (fields
        (field (name SupplierName) Conrad)
        (field (name SupplierNumber) "718732 - AW")
        (field (name SupplierUrl) https://www.conrad.de/de/p/conrad-components-718732-klinken-steckverbinder-3-5-mm-buchse-einbau-horizontal-polzahl-4-stereo-schwarz-1-st-718732.html))
      (libsource (lib Connector) (part AudioJack4) (description "Audio Jack, 4 Poles (TRRS)"))
      (sheetpath (names /) (tstamps /))
      (tstamp 618F1FE3))
    (comp (ref J2)
      (value AudioJack4_SwitchT)
      (footprint Footprints:Jack_2.5mm_4Pol_horizontal)
      (datasheet ~)
      (fields
        (field (name SupplierName) Conrad)
        (field (name SupplierNumber) "1578843 - AW")
        (field (name SupplierUrl) https://www.conrad.de/de/p/tru-components-1578843-klinken-steckverbinder-2-5-mm-buchse-einbau-horizontal-polzahl-4-1-st-1578843.html))
      (libsource (lib HeadsetInterconnection-rescue) (part AudioJack4_SwitchT-Connector) (description ""))
      (sheetpath (names /) (tstamps /))
      (tstamp 618F2724))
    (comp (ref Q1)
      (value Q_PMOS_GSD)
      (footprint Package_TO_SOT_SMD:SOT-23)
      (datasheet ~)
      (libsource (lib Device) (part Q_PMOS_GSD) (description "P-MOSFET transistor, gate/source/drain"))
      (sheetpath (names /) (tstamps /))
      (tstamp 6196F283))
    (comp (ref R1)
      (value R)
      (footprint Resistor_SMD:R_0603_1608Metric)
      (datasheet ~)
      (libsource (lib Device) (part R) (description Resistor))
      (sheetpath (names /) (tstamps /))
      (tstamp 619820AD))
    (comp (ref R2)
      (value R)
      (footprint Resistor_SMD:R_0603_1608Metric)
      (datasheet ~)
      (libsource (lib Device) (part R) (description Resistor))
      (sheetpath (names /) (tstamps /))
      (tstamp 619B31E3))
    (comp (ref C1)
      (value C)
      (footprint Capacitor_SMD:C_0603_1608Metric)
      (datasheet ~)
      (libsource (lib Device) (part C) (description "Unpolarized capacitor"))
      (sheetpath (names /) (tstamps /))
      (tstamp 619B7148))
    (comp (ref J3)
      (value AudioJack4)
      (footprint Footprints:Jack_3.5mm_4Pol_horizontal)
      (datasheet ~)
      (fields
        (field (name SupplierName) Conrad)
        (field (name SupplierNumber) "718732 - AW")
        (field (name SupplierUrl) https://www.conrad.de/de/p/conrad-components-718732-klinken-steckverbinder-3-5-mm-buchse-einbau-horizontal-polzahl-4-stereo-schwarz-1-st-718732.html))
      (libsource (lib Connector) (part AudioJack4) (description "Audio Jack, 4 Poles (TRRS)"))
      (sheetpath (names /) (tstamps /))
      (tstamp 619DB43A))
    (comp (ref J4)
      (value AudioJack4_SwitchT)
      (footprint Footprints:Jack_2.5mm_4Pol_horizontal)
      (datasheet ~)
      (fields
        (field (name SupplierName) Conrad)
        (field (name SupplierNumber) "1578843 - AW")
        (field (name SupplierUrl) https://www.conrad.de/de/p/tru-components-1578843-klinken-steckverbinder-2-5-mm-buchse-einbau-horizontal-polzahl-4-1-st-1578843.html))
      (libsource (lib HeadsetInterconnection-rescue) (part AudioJack4_SwitchT-Connector) (description ""))
      (sheetpath (names /) (tstamps /))
      (tstamp 619DB443))
    (comp (ref R3)
      (value R)
      (footprint Resistor_SMD:R_0603_1608Metric)
      (datasheet ~)
      (libsource (lib Device) (part R) (description Resistor))
      (sheetpath (names /) (tstamps /))
      (tstamp 619C02CB))
    (comp (ref C2)
      (value C)
      (footprint Capacitor_SMD:C_0603_1608Metric)
      (datasheet ~)
      (libsource (lib Device) (part C) (description "Unpolarized capacitor"))
      (sheetpath (names /) (tstamps /))
      (tstamp 619C02D1))
    (comp (ref R4)
      (value R)
      (footprint Resistor_SMD:R_0603_1608Metric)
      (datasheet ~)
      (libsource (lib Device) (part R) (description Resistor))
      (sheetpath (names /) (tstamps /))
      (tstamp 619CE8E3))
    (comp (ref C3)
      (value C)
      (footprint Capacitor_SMD:C_0603_1608Metric)
      (datasheet ~)
      (libsource (lib Device) (part C) (description "Unpolarized capacitor"))
      (sheetpath (names /) (tstamps /))
      (tstamp 619CE8E9)))
  (libparts
    (libpart (lib Connector) (part AudioJack4)
      (description "Audio Jack, 4 Poles (TRRS)")
      (docs ~)
      (footprints
        (fp Jack*))
      (fields
        (field (name Reference) J)
        (field (name Value) AudioJack4))
      (pins
        (pin (num R1) (name ~) (type passive))
        (pin (num R2) (name ~) (type passive))
        (pin (num S) (name ~) (type passive))
        (pin (num T) (name ~) (type passive))))
    (libpart (lib Device) (part C)
      (description "Unpolarized capacitor")
      (docs ~)
      (footprints
        (fp C_*))
      (fields
        (field (name Reference) C)
        (field (name Value) C))
      (pins
        (pin (num 1) (name ~) (type passive))
        (pin (num 2) (name ~) (type passive))))
    (libpart (lib Device) (part Q_PMOS_GSD)
      (description "P-MOSFET transistor, gate/source/drain")
      (docs ~)
      (fields
        (field (name Reference) Q)
        (field (name Value) Q_PMOS_GSD))
      (pins
        (pin (num 1) (name G) (type input))
        (pin (num 2) (name S) (type passive))
        (pin (num 3) (name D) (type passive))))
    (libpart (lib Device) (part R)
      (description Resistor)
      (docs ~)
      (footprints
        (fp R_*))
      (fields
        (field (name Reference) R)
        (field (name Value) R))
      (pins
        (pin (num 1) (name ~) (type passive))
        (pin (num 2) (name ~) (type passive))))
    (libpart (lib HeadsetInterconnection-rescue) (part AudioJack4_SwitchT-Connector)
      (footprints
        (fp Jack*))
      (fields
        (field (name Reference) J)
        (field (name Value) AudioJack4_SwitchT-Connector))
      (pins
        (pin (num R1) (name ~) (type passive))
        (pin (num R2) (name ~) (type passive))
        (pin (num S) (name ~) (type passive))
        (pin (num T) (name ~) (type passive))
        (pin (num TN) (name ~) (type passive)))))
  (libraries
    (library (logical Connector)
      (uri /usr/share/kicad/library/Connector.lib))
    (library (logical Device)
      (uri /usr/share/kicad/library/Device.lib))
    (library (logical HeadsetInterconnection-rescue)
      (uri /home/martin/Downloads/HeadSetInterconnection/HeadsetInterconnection-rescue.lib)))
  (nets
    (net (code 1) (name "Net-(J4-PadTN)")
      (node (ref J4) (pin TN)))
    (net (code 2) (name /Left2)
      (node (ref J4) (pin R2))
      (node (ref J4) (pin R1))
      (node (ref J3) (pin R1))
      (node (ref J3) (pin T)))
    (net (code 3) (name /Microphone2)
      (node (ref J3) (pin R2))
      (node (ref J4) (pin T))
      (node (ref R4) (pin 2))
      (node (ref C3) (pin 2)))
    (net (code 4) (name GND)
      (node (ref J2) (pin S))
      (node (ref R2) (pin 2))
      (node (ref J7) (pin S))
      (node (ref J6) (pin S))
      (node (ref C2) (pin 1))
      (node (ref R3) (pin 1))
      (node (ref J1) (pin S))
      (node (ref J3) (pin S))
      (node (ref J4) (pin S))
      (node (ref C3) (pin 1))
      (node (ref R4) (pin 1))
      (node (ref C1) (pin 2)))
    (net (code 5) (name /Microphone)
      (node (ref J2) (pin T))
      (node (ref J1) (pin R2))
      (node (ref C2) (pin 2))
      (node (ref R3) (pin 2)))
    (net (code 6) (name "Net-(J2-PadTN)")
      (node (ref J2) (pin TN)))
    (net (code 7) (name /Left)
      (node (ref J1) (pin R1))
      (node (ref J1) (pin T))
      (node (ref J2) (pin R1))
      (node (ref J2) (pin R2)))
    (net (code 8) (name "Net-(J7-PadR2)")
      (node (ref J7) (pin R2)))
    (net (code 9) (name "Net-(J7-PadTN)")
      (node (ref J7) (pin TN)))
    (net (code 10) (name "Net-(J5-PadR2)")
      (node (ref J5) (pin R2)))
    (net (code 11) (name "Net-(J6-PadR1)")
      (node (ref J6) (pin R1)))
    (net (code 12) (name "Net-(J6-PadR2)")
      (node (ref J6) (pin R2)))
    (net (code 13) (name "Net-(J6-PadTN)")
      (node (ref J6) (pin TN)))
    (net (code 14) (name "Net-(J5-PadT)")
      (node (ref J5) (pin T)))
    (net (code 15) (name /PTT_Adapter)
      (node (ref Q1) (pin 1))
      (node (ref R1) (pin 2))
      (node (ref J5) (pin S)))
    (net (code 16) (name /Microphone_Adapter)
      (node (ref C1) (pin 1))
      (node (ref Q1) (pin 3))
      (node (ref R2) (pin 1))
      (node (ref J5) (pin R1)))
    (net (code 17) (name /Speaker_Adapter)
      (node (ref J6) (pin T))
      (node (ref J7) (pin T)))
    (net (code 18) (name /Microphone_Radio)
      (node (ref J7) (pin R1))
      (node (ref Q1) (pin 2))
      (node (ref R1) (pin 1)))))