(kicad_symbol_lib (version 20220914) (generator kicad_symbol_editor)
  (symbol "AudioJack4-Connector" (in_bom yes) (on_board yes)
    (property "Reference" "J" (at 0 8.89 0)
      (effects (font (size 1.27 1.27)))
    )
    (property "Value" "Connector_AudioJack4" (at 0 6.35 0)
      (effects (font (size 1.27 1.27)))
    )
    (property "Footprint" "" (at 0 0 0)
      (effects (font (size 1.27 1.27)) hide)
    )
    (property "Datasheet" "" (at 0 0 0)
      (effects (font (size 1.27 1.27)) hide)
    )
    (property "ki_fp_filters" "Jack*" (at 0 0 0)
      (effects (font (size 1.27 1.27)) hide)
    )
    (symbol "AudioJack4-Connector_0_1"
      (rectangle (start -6.35 -5.08) (end -7.62 -7.62)
        (stroke (width 0.254) (type solid))
        (fill (type outline))
      )
      (polyline
        (pts
          (xy 0 -5.08)
          (xy 0.635 -5.715)
          (xy 1.27 -5.08)
          (xy 2.54 -5.08)
        )
        (stroke (width 0.254) (type solid))
        (fill (type none))
      )
      (polyline
        (pts
          (xy -5.715 -5.08)
          (xy -5.08 -5.715)
          (xy -4.445 -5.08)
          (xy -4.445 2.54)
          (xy 2.54 2.54)
        )
        (stroke (width 0.254) (type solid))
        (fill (type none))
      )
      (polyline
        (pts
          (xy -1.905 -5.08)
          (xy -1.27 -5.715)
          (xy -0.635 -5.08)
          (xy -0.635 -2.54)
          (xy 2.54 -2.54)
        )
        (stroke (width 0.254) (type solid))
        (fill (type none))
      )
      (polyline
        (pts
          (xy 2.54 0)
          (xy -2.54 0)
          (xy -2.54 -5.08)
          (xy -3.175 -5.715)
          (xy -3.81 -5.08)
        )
        (stroke (width 0.254) (type solid))
        (fill (type none))
      )
      (rectangle (start 2.54 3.81) (end -6.35 -7.62)
        (stroke (width 0.254) (type solid))
        (fill (type background))
      )
    )
    (symbol "AudioJack4-Connector_1_1"
      (pin passive line (at 5.08 -2.54 180) (length 2.54)
        (name "~" (effects (font (size 1.27 1.27))))
        (number "R1" (effects (font (size 1.27 1.27))))
      )
      (pin passive line (at 5.08 0 180) (length 2.54)
        (name "~" (effects (font (size 1.27 1.27))))
        (number "R2" (effects (font (size 1.27 1.27))))
      )
      (pin passive line (at 5.08 2.54 180) (length 2.54)
        (name "~" (effects (font (size 1.27 1.27))))
        (number "S" (effects (font (size 1.27 1.27))))
      )
      (pin passive line (at 5.08 -5.08 180) (length 2.54)
        (name "~" (effects (font (size 1.27 1.27))))
        (number "T" (effects (font (size 1.27 1.27))))
      )
    )
  )
  (symbol "AudioJack4_SwitchT-Connector" (in_bom yes) (on_board yes)
    (property "Reference" "J" (at 0 11.43 0)
      (effects (font (size 1.27 1.27)))
    )
    (property "Value" "AudioJack4_SwitchT-Connector" (at 0 8.89 0)
      (effects (font (size 1.27 1.27)))
    )
    (property "Footprint" "" (at -1.27 0 0)
      (effects (font (size 1.27 1.27)) hide)
    )
    (property "Datasheet" "" (at -1.27 0 0)
      (effects (font (size 1.27 1.27)) hide)
    )
    (property "ki_fp_filters" "Jack*" (at 0 0 0)
      (effects (font (size 1.27 1.27)) hide)
    )
    (symbol "AudioJack4_SwitchT-Connector_0_1"
      (rectangle (start -7.62 -5.08) (end -8.89 -7.62)
        (stroke (width 0.254) (type solid))
        (fill (type outline))
      )
      (polyline
        (pts
          (xy 1.27 -5.08)
          (xy 2.54 -5.08)
        )
        (stroke (width 0) (type solid))
        (fill (type none))
      )
      (polyline
        (pts
          (xy 1.27 2.54)
          (xy 2.54 2.54)
        )
        (stroke (width 0) (type solid))
        (fill (type none))
      )
      (polyline
        (pts
          (xy 2.54 0)
          (xy 1.27 0)
        )
        (stroke (width 0) (type solid))
        (fill (type none))
      )
      (polyline
        (pts
          (xy 2.54 5.08)
          (xy 1.27 5.08)
        )
        (stroke (width 0) (type solid))
        (fill (type none))
      )
      (rectangle (start 1.27 6.35) (end -7.62 -10.16)
        (stroke (width 0.254) (type solid))
        (fill (type background))
      )
    )
    (symbol "AudioJack4_SwitchT-Connector_1_1"
      (polyline
        (pts
          (xy 0.508 -5.334)
          (xy 0.762 -5.842)
        )
        (stroke (width 0) (type solid))
        (fill (type none))
      )
      (polyline
        (pts
          (xy -1.27 -5.08)
          (xy -0.635 -5.715)
          (xy 0 -5.08)
          (xy 1.27 -5.08)
        )
        (stroke (width 0.254) (type solid))
        (fill (type none))
      )
      (polyline
        (pts
          (xy 2.54 -7.62)
          (xy 0.508 -7.62)
          (xy 0.508 -5.334)
          (xy 0.254 -5.842)
        )
        (stroke (width 0) (type solid))
        (fill (type none))
      )
      (polyline
        (pts
          (xy -3.175 -5.08)
          (xy -2.54 -5.715)
          (xy -1.905 -5.08)
          (xy -1.905 0)
          (xy 1.27 0)
        )
        (stroke (width 0.254) (type solid))
        (fill (type none))
      )
      (polyline
        (pts
          (xy 1.27 2.54)
          (xy -3.81 2.54)
          (xy -3.81 -5.08)
          (xy -4.445 -5.715)
          (xy -5.08 -5.08)
        )
        (stroke (width 0.254) (type solid))
        (fill (type none))
      )
      (polyline
        (pts
          (xy 1.27 5.08)
          (xy -5.715 5.08)
          (xy -5.715 -5.08)
          (xy -6.35 -5.715)
          (xy -6.985 -5.08)
        )
        (stroke (width 0.254) (type solid))
        (fill (type none))
      )
      (pin passive line (at 5.08 0 180) (length 2.54)
        (name "~" (effects (font (size 1.27 1.27))))
        (number "R1" (effects (font (size 1.27 1.27))))
      )
      (pin passive line (at 5.08 2.54 180) (length 2.54)
        (name "~" (effects (font (size 1.27 1.27))))
        (number "R2" (effects (font (size 1.27 1.27))))
      )
      (pin passive line (at 5.08 5.08 180) (length 2.54)
        (name "~" (effects (font (size 1.27 1.27))))
        (number "S" (effects (font (size 1.27 1.27))))
      )
      (pin passive line (at 5.08 -5.08 180) (length 2.54)
        (name "~" (effects (font (size 1.27 1.27))))
        (number "T" (effects (font (size 1.27 1.27))))
      )
      (pin passive line (at 5.08 -7.62 180) (length 2.54)
        (name "~" (effects (font (size 1.27 1.27))))
        (number "TN" (effects (font (size 1.27 1.27))))
      )
    )
  )
)
